bb_PmodAD1/bb_PmodAD1_data/EEBoard_Calibration.csv

#Digilent WaveForms Oscilloscope Acquisition
#Device Name: EExplorer
#Serial Number: SN:210151450455
#Date Time: 2019-02-01 09:32:42.824
#Sample rate: 2e+06Hz
#Samples: 8192
#Trigger: Source: Channel 1 Type: Edge Condition: Either Level: 0 V Hyst.: Auto HoldOff: 0 s
#Channel 1: Range: 200 mV/div Offset: 0 V
#Wavegen Channel 1: Running
#Mode: Simple
#Type: DC
#Offset: 0 V

Calibration
Zero DC offset
Measured: ~-130mV
Time (s),Channel 1 (V)
0.0007685,-0.118732
0.000769,-0.127324
0.0007695,-0.125176
0.00077,-0.123028
0.0007705,-0.125176
0.000771,-0.123028
0.0007715,-0.13162
0.000772,-0.12088
0.0007725,-0.127324
0.000773,-0.129472
0.0007735,-0.13162
0.000774,-0.123028
0.0007745,-0.123028
0.000775,-0.127324
0.0007755,-0.12088
0.000776,-0.127324
0.0007765,-0.12088
0.000777,-0.13162
0.0007775,-0.123028
0.000778,-0.127324
0.0007785,-0.118732
0.000779,-0.129472
0.0007795,-0.125176
0.00078,-0.123028
0.0007805,-0.116583
0.000781,-0.127324
0.0007815,-0.129472
0.000782,-0.125176
0.0007825,-0.125176
0.000783,-0.127324
0.0007835,-0.13162
0.000784,-0.12088
0.0007845,-0.125176
0.000785,-0.123028
0.0007855,-0.13162
0.000786,-0.123028
0.0007865,-0.125176
0.000787,-0.123028
0.0007875,-0.127324
0.000788,-0.125176
0.0007885,-0.123028
0.000789,-0.135916
0.0007895,-0.127324
0.00079,-0.13162
0.0007905,-0.118732
0.000791,-0.129472
0.0007915,-0.127324
0.000792,-0.133768
0.0007925,-0.127324
0.000793,-0.129472
0.0007935,-0.127324
0.000794,-0.125176
0.0007945,-0.127324
0.000795,-0.125176
0.0007955,-0.129472
0.000796,-0.123028
0.0007965,-0.127324
0.000797,-0.12088
0.0007975,-0.13162
0.000798,-0.123028
0.0007985,-0.127324
0.000799,-0.125176
0.0007995,-0.129472
0.0008,-0.123028
0.0008005,-0.127324
0.000801,-0.13162
0.0008015,-0.127324
0.000802,-0.13162
0.0008025,-0.123028
0.000803,-0.125176
0.0008035,-0.127324
0.000804,-0.127324
0.0008045,-0.125176
0.000805,-0.125176
0.0008055,-0.129472
0.000806,-0.127324
0.0008065,-0.129472
0.000807,-0.123028
0.0008075,-0.127324
0.000808,-0.123028
0.0008085,-0.13162
0.000809,-0.123028
0.0008095,-0.13162
0.00081,-0.118732
0.0008105,-0.127324
0.000811,-0.123028
0.0008115,-0.127324
0.000812,-0.125176
0.0008125,-0.123028
0.000813,-0.129472
0.0008135,-0.127324
0.000814,-0.127324
0.0008145,-0.129472
0.000815,-0.129472
0.0008155,-0.125176
0.000816,-0.129472
0.0008165,-0.123028
0.000817,-0.129472
0.0008175,-0.127324
0.000818,-0.129472
0.0008185,-0.129472
0.000819,-0.127324
0.0008195,-0.133768
0.00082,-0.125176
0.0008205,-0.129472
0.000821,-0.125176
0.0008215,-0.13162
0.000822,-0.123028
0.0008225,-0.129472
0.000823,-0.125176
0.0008235,-0.13162
0.000824,-0.125176
0.0008245,-0.127324
0.000825,-0.127324
0.0008255,-0.127324
0.000826,-0.129472
0.0008265,-0.125176
0.000827,-0.129472
0.0008275,-0.125176
0.000828,-0.13162
0.0008285,-0.125176
0.000829,-0.127324
0.0008295,-0.127324
0.00083,-0.127324
0.0008305,-0.127324
0.000831,-0.125176
0.0008315,-0.129472
0.000832,-0.125176
0.0008325,-0.129472
0.000833,-0.123028
0.0008335,-0.13162
0.000834,-0.123028
0.0008345,-0.127324
0.000835,-0.123028
0.0008355,-0.129472
0.000836,-0.125176
0.0008365,-0.127324
0.000837,-0.125176
0.0008375,-0.129472
0.000838,-0.13162
0.0008385,-0.125176
0.000839,-0.13162
0.0008395,-0.127324
0.00084,-0.135916
0.0008405,-0.127324
0.000841,-0.129472
0.0008415,-0.129472
0.000842,-0.129472
0.0008425,-0.127324
0.000843,-0.125176
0.0008435,-0.135916
0.000844,-0.123028
0.0008445,-0.129472
0.000845,-0.123028
0.0008455,-0.13162
0.000846,-0.12088
0.0008465,-0.13162
0.000847,-0.123028
0.0008475,-0.127324
0.000848,-0.125176
0.0008485,-0.127324
0.000849,-0.123028
0.0008495,-0.127324
0.00085,-0.129472
0.0008505,-0.118732
0.000851,-0.125176
0.0008515,-0.127324
0.000852,-0.129472
0.0008525,-0.118732
0.000853,-0.125176
0.0008535,-0.125176
0.000854,-0.125176
0.0008545,-0.123028
0.000855,-0.123028
0.0008555,-0.127324
0.000856,-0.123028
0.0008565,-0.127324
0.000857,-0.118732
0.0008575,-0.129472
0.000858,-0.123028
0.0008585,-0.125176
0.000859,-0.12088
0.0008595,-0.13162
0.00086,-0.125176
0.0008605,-0.125176
0.000861,-0.12088
0.0008615,-0.127324
0.000862,-0.125176
0.0008625,-0.12088
0.000863,-0.125176
0.0008635,-0.125176
0.000864,-0.129472
0.0008645,-0.12088
0.000865,-0.127324
0.0008655,-0.125176
0.000866,-0.13162
0.0008665,-0.125176
0.000867,-0.125176
0.0008675,-0.125176
0.000868,-0.127324
0.0008685,-0.127324
0.000869,-0.123028
0.0008695,-0.13162
0.00087,-0.127324
0.0008705,-0.133768
0.000871,-0.12088
0.0008715,-0.129472
0.000872,-0.127324
0.0008725,-0.13162
0.000873,-0.125176
0.0008735,-0.127324
0.000874,-0.13162
0.0008745,-0.125176
0.000875,-0.127324
0.0008755,-0.127324
0.000876,-0.13162
0.0008765,-0.123028
0.000877,-0.129472
0.0008775,-0.123028
0.000878,-0.129472
0.0008785,-0.125176
0.000879,-0.127324
0.0008795,-0.129472
0.00088,-0.129472
0.0008805,-0.129472
0.000881,-0.123028
0.0008815,-0.129472
0.000882,-0.123028
0.0008825,-0.127324
0.000883,-0.123028
0.0008835,-0.127324
0.000884,-0.125176
0.0008845,-0.127324
0.000885,-0.125176
0.0008855,-0.125176
0.000886,-0.13162
0.0008865,-0.123028
0.000887,-0.125176
0.0008875,-0.123028
0.000888,-0.13162
0.0008885,-0.12088
0.000889,-0.129472
0.0008895,-0.123028
0.00089,-0.13162
0.0008905,-0.123028
0.000891,-0.127324
0.0008915,-0.125176
0.000892,-0.133768
0.0008925,-0.125176
0.000893,-0.125176
0.0008935,-0.129472
0.000894,-0.127324
0.0008945,-0.129472
0.000895,-0.125176
0.0008955,-0.129472
0.000896,-0.127324
0.0008965,-0.13162
0.000897,-0.125176
0.0008975,-0.129472
0.000898,-0.127324
0.0008985,-0.129472
0.000899,-0.127324
0.0008995,-0.127324
0.0009,-0.133768
0.0009005,-0.125176
0.000901,-0.13162
0.0009015,-0.127324
0.000902,-0.129472
0.0009025,-0.12088
0.000903,-0.127324
0.0009035,-0.125176
0.000904,-0.129472
0.0009045,-0.125176
0.000905,-0.125176
0.0009055,-0.129472
0.000906,-0.125176
0.0009065,-0.127324
0.000907,-0.127324
0.0009075,-0.127324
0.000908,-0.125176
0.0009085,-0.129472
0.000909,-0.127324
0.0009095,-0.125176
0.00091,-0.129472
0.0009105,-0.127324
0.000911,-0.13162
0.0009115,-0.125176
0.000912,-0.135916
0.0009125,-0.125176
0.000913,-0.129472
0.0009135,-0.123028
0.000914,-0.133768
0.0009145,-0.123028
0.000915,-0.127324
0.0009155,-0.123028
0.000916,-0.13162
0.0009165,-0.125176
0.000917,-0.123028
0.0009175,-0.129472
0.000918,-0.129472
0.0009185,-0.129472
0.000919,-0.12088
0.0009195,-0.129472
0.00092,-0.125176
0.0009205,-0.129472
0.000921,-0.123028
0.0009215,-0.129472
0.000922,-0.13162
0.0009225,-0.125176
0.000923,-0.127324
0.0009235,-0.118732
0.000924,-0.138065
0.0009245,-0.125176
0.000925,-0.129472
0.0009255,-0.12088
0.000926,-0.133768
0.0009265,-0.123028
0.000927,-0.127324
0.0009275,-0.12088
0.000928,-0.129472
0.0009285,-0.123028
0.000929,-0.123028
0.0009295,-0.123028
0.00093,-0.127324
0.0009305,-0.127324
0.000931,-0.123028
0.0009315,-0.125176
0.000932,-0.125176
0.0009325,-0.129472
0.000933,-0.12088
0.0009335,-0.125176
0.000934,-0.129472
0.0009345,-0.127324
0.000935,-0.125176
0.0009355,-0.123028
0.000936,-0.13162
0.0009365,-0.125176
0.000937,-0.129472
0.0009375,-0.118732
0.000938,-0.13162
0.0009385,-0.123028
0.000939,-0.127324
0.0009395,-0.123028
0.00094,-0.129472
0.0009405,-0.125176
0.000941,-0.127324
0.0009415,-0.125176
0.000942,-0.127324
0.0009425,-0.127324
0.000943,-0.123028
0.0009435,-0.127324
0.000944,-0.125176
0.0009445,-0.13162
0.000945,-0.123028
0.0009455,-0.125176
0.000946,-0.129472
0.0009465,-0.127324
0.000947,-0.127324
0.0009475,-0.125176
0.000948,-0.125176
0.0009485,-0.125176
0.000949,-0.129472
0.0009495,-0.123028
0.00095,-0.133768
0.0009505,-0.125176
0.000951,-0.127324
0.0009515,-0.123028
0.000952,-0.129472
0.0009525,-0.129472
0.000953,-0.127324
0.0009535,-0.127324
0.000954,-0.127324
0.0009545,-0.13162
0.000955,-0.123028
0.0009555,-0.13162
0.000956,-0.127324
0.0009565,-0.13162
0.000957,-0.123028
0.0009575,-0.129472
0.000958,-0.123028
0.0009585,-0.129472
0.000959,-0.127324
0.0009595,-0.127324
0.00096,-0.127324
0.0009605,-0.127324
0.000961,-0.129472
0.0009615,-0.123028
0.000962,-0.13162
0.0009625,-0.123028
0.000963,-0.13162
0.0009635,-0.123028
0.000964,-0.129472
0.0009645,-0.127324
0.000965,-0.127324
0.0009655,-0.125176
0.000966,-0.123028
0.0009665,-0.129472
0.000967,-0.123028
0.0009675,-0.125176
0.000968,-0.127324
0.0009685,-0.13162
0.000969,-0.118732
0.0009695,-0.13162
0.00097,-0.125176
0.0009705,-0.129472
0.000971,-0.12088
0.0009715,-0.129472
0.000972,-0.127324
0.0009725,-0.125176
0.000973,-0.129472
0.0009735,-0.129472
0.000974,-0.13162
0.0009745,-0.125176
0.000975,-0.13162
0.0009755,-0.125176
0.000976,-0.129472
0.0009765,-0.127324
0.000977,-0.127324
0.0009775,-0.129472
0.000978,-0.127324
0.0009785,-0.129472
0.000979,-0.123028
0.0009795,-0.127324
0.00098,-0.123028
0.0009805,-0.133768
0.000981,-0.12088
0.0009815,-0.129472
0.000982,-0.123028
0.0009825,-0.13162
0.000983,-0.123028
0.0009835,-0.125176
0.000984,-0.125176
0.0009845,-0.127324
0.000985,-0.125176
0.0009855,-0.123028
0.000986,-0.127324
0.0009865,-0.129472
0.000987,-0.129472
0.0009875,-0.123028
0.000988,-0.129472
0.0009885,-0.127324
0.000989,-0.129472
0.0009895,-0.125176
0.00099,-0.125176
0.0009905,-0.125176
0.000991,-0.127324
0.0009915,-0.127324
0.000992,-0.12088
0.0009925,-0.133768
0.000993,-0.12088
0.0009935,-0.133768
0.000994,-0.118732
0.0009945,-0.133768
0.000995,-0.123028
0.0009955,-0.129472
0.000996,-0.125176
0.0009965,-0.129472
0.000997,-0.127324
0.0009975,-0.127324
0.000998,-0.127324
0.0009985,-0.129472
0.000999,-0.129472
0.0009995,-0.12088
0.001,-0.127324
0.0010005,-0.12088
0.001001,-0.129472
0.0010015,-0.125176
0.001002,-0.125176
0.0010025,-0.129472
0.001003,-0.127324
0.0010035,-0.127324
0.001004,-0.125176
0.0010045,-0.135916
0.001005,-0.125176
0.0010055,-0.129472
0.001006,-0.123028
0.0010065,-0.133768
0.001007,-0.123028
0.0010075,-0.127324
0.001008,-0.123028
0.0010085,-0.129472
0.001009,-0.127324
0.0010095,-0.123028
0.00101,-0.125176
0.0010105,-0.125176
0.001011,-0.13162
0.0010115,-0.123028
0.001012,-0.129472
0.0010125,-0.125176
0.001013,-0.13162
0.0010135,-0.125176
0.001014,-0.127324
0.0010145,-0.127324
0.001015,-0.127324
0.0010155,-0.13162
0.001016,-0.123028
0.0010165,-0.129472
0.001017,-0.127324
0.0010175,-0.129472
0.001018,-0.123028
0.0010185,-0.133768
0.001019,-0.127324
0.0010195,-0.13162
0.00102,-0.123028
0.0010205,-0.129472
0.001021,-0.127324
0.0010215,-0.125176
0.001022,-0.127324
0.0010225,-0.125176
0.001023,-0.13162
0.0010235,-0.12088
0.001024,-0.125176
0.0010245,-0.125176
0.001025,-0.129472
0.0010255,-0.12088
0.001026,-0.125176
0.0010265,-0.125176
0.001027,-0.125176
0.0010275,-0.125176
0.001028,-0.12088
0.0010285,-0.127324
0.001029,-0.123028
0.0010295,-0.125176
0.00103,-0.118732
0.0010305,-0.127324
0.001031,-0.12088
0.0010315,-0.127324
0.001032,-0.118732
0.0010325,-0.125176
0.001033,-0.127324
0.0010335,-0.125176
0.001034,-0.127324
0.0010345,-0.127324
0.001035,-0.13162
0.0010355,-0.123028
0.001036,-0.129472
0.0010365,-0.127324
0.001037,-0.13162
0.0010375,-0.12088
0.001038,-0.127324
0.0010385,-0.125176
0.001039,-0.127324
0.0010395,-0.125176
0.00104,-0.123028
0.0010405,-0.133768
0.001041,-0.127324
0.0010415,-0.13162
0.001042,-0.125176
0.0010425,-0.13162
0.001043,-0.125176
0.0010435,-0.129472
0.001044,-0.125176
0.0010445,-0.127324
0.001045,-0.129472
0.0010455,-0.125176
0.001046,-0.125176
0.0010465,-0.125176
0.001047,-0.129472
0.0010475,-0.12088
0.001048,-0.129472
0.0010485,-0.127324
0.001049,-0.13162
0.0010495,-0.118732
0.00105,-0.127324
0.0010505,-0.123028
0.001051,-0.129472
0.0010515,-0.123028
0.001052,-0.123028
0.0010525,-0.129472
0.001053,-0.125176
0.0010535,-0.127324
0.001054,-0.123028
0.0010545,-0.129472
0.001055,-0.129472
0.0010555,-0.129472
0.001056,-0.125176
0.0010565,-0.133768
0.001057,-0.127324
0.0010575,-0.125176
0.001058,-0.129472
0.0010585,-0.129472
0.001059,-0.133768
0.0010595,-0.127324
0.00106,-0.129472
0.0010605,-0.123028
0.001061,-0.129472
0.0010615,-0.12088
0.001062,-0.129472
0.0010625,-0.125176
0.001063,-0.13162
0.0010635,-0.123028
0.001064,-0.129472
0.0010645,-0.129472
0.001065,-0.129472
0.0010655,-0.127324
0.001066,-0.125176
0.0010665,-0.129472
0.001067,-0.129472
0.0010675,-0.13162
0.001068,-0.129472
0.0010685,-0.13162
0.001069,-0.129472
0.0010695,-0.127324
0.00107,-0.127324
0.0010705,-0.123028
0.001071,-0.129472
0.0010715,-0.125176
0.001072,-0.129472
0.0010725,-0.123028
0.001073,-0.13162
0.0010735,-0.12088
0.001074,-0.127324
0.0010745,-0.125176
0.001075,-0.129472
0.0010755,-0.125176
0.001076,-0.129472
0.0010765,-0.127324
0.001077,-0.123028
0.0010775,-0.123028
0.001078,-0.127324
0.0010785,-0.129472
0.001079,-0.127324
0.0010795,-0.129472
0.00108,-0.125176
0.0010805,-0.127324
0.001081,-0.125176
0.0010815,-0.129472
0.001082,-0.127324
0.0010825,-0.125176
0.001083,-0.13162
0.0010835,-0.127324
0.001084,-0.13162
0.0010845,-0.123028
0.001085,-0.133768
0.0010855,-0.123028
0.001086,-0.129472
0.0010865,-0.12088
0.001087,-0.133768
0.0010875,-0.123028
0.001088,-0.129472
0.0010885,-0.123028
0.001089,-0.127324
0.0010895,-0.123028
0.00109,-0.123028
0.0010905,-0.127324
0.001091,-0.12088
0.0010915,-0.129472
0.001092,-0.12088
0.0010925,-0.127324
0.001093,-0.125176
0.0010935,-0.127324
0.001094,-0.123028
0.0010945,-0.123028
0.001095,-0.129472
0.0010955,-0.123028
0.001096,-0.129472
0.0010965,-0.118732
0.001097,-0.133768
0.0010975,-0.12088
0.001098,-0.127324
0.0010985,-0.12088
0.001099,-0.129472
0.0010995,-0.12088
0.0011,-0.127324
0.0011005,-0.12088
0.001101,-0.127324
0.0011015,-0.127324
0.001102,-0.125176
0.0011025,-0.127324
0.001103,-0.123028
0.0011035,-0.13162
0.001104,-0.12088
0.0011045,-0.127324
0.001105,-0.125176
0.0011055,-0.129472
0.001106,-0.125176
0.0011065,-0.125176
0.001107,-0.129472
0.0011075,-0.125176
0.001108,-0.13162
0.0011085,-0.123028
0.001109,-0.13162
0.0011095,-0.125176
0.00111,-0.129472
0.0011105,-0.12088
0.001111,-0.133768
0.0011115,-0.125176
0.001112,-0.127324
0.0011125,-0.125176
0.001113,-0.127324
0.0011135,-0.127324
0.001114,-0.123028
0.0011145,-0.127324
0.001115,-0.127324
0.0011155,-0.135916
0.001116,-0.12088
0.0011165,-0.129472
0.001117,-0.125176
0.0011175,-0.129472
0.001118,-0.123028
0.0011185,-0.123028
0.001119,-0.127324
0.0011195,-0.125176
0.00112,-0.127324
0.0011205,-0.123028
0.001121,-0.13162
0.0011215,-0.129472
0.001122,-0.13162
0.0011225,-0.12088
0.001123,-0.13162
0.0011235,-0.125176
0.001124,-0.127324
0.0011245,-0.125176
0.001125,-0.125176
0.0011255,-0.129472
0.001126,-0.125176
0.0011265,-0.123028
0.001127,-0.127324
0.0011275,-0.133768
0.001128,-0.123028
0.0011285,-0.123028
0.001129,-0.123028
0.0011295,-0.129472
0.00113,-0.12088
0.0011305,-0.127324
0.001131,-0.125176
0.0011315,-0.129472
0.001132,-0.127324
0.0011325,-0.123028
0.001133,-0.13162
0.0011335,-0.125176
0.001134,-0.13162
0.0011345,-0.125176
0.001135,-0.129472
0.0011355,-0.127324
0.001136,-0.129472
0.0011365,-0.127324
0.001137,-0.129472
0.0011375,-0.129472
0.001138,-0.125176
0.0011385,-0.129472
0.001139,-0.125176
0.0011395,-0.129472
0.00114,-0.123028
0.0011405,-0.13162
0.001141,-0.123028
0.0011415,-0.13162
0.001142,-0.12088
0.0011425,-0.129472
0.001143,-0.127324
0.0011435,-0.13162
0.001144,-0.129472
0.0011445,-0.127324
0.001145,-0.13162
0.0011455,-0.127324
0.001146,-0.127324
0.0011465,-0.125176
0.001147,-0.13162
0.0011475,-0.127324
0.001148,-0.129472
0.0011485,-0.123028
0.001149,-0.125176
0.0011495,-0.125176
0.00115,-0.125176
0.0011505,-0.125176
0.001151,-0.125176
0.0011515,-0.133768
0.001152,-0.118732
0.0011525,-0.127324
0.001153,-0.118732
0.0011535,-0.133768
0.001154,-0.114435
0.0011545,-0.127324
0.001155,-0.123028
0.0011555,-0.129472
0.001156,-0.125176
0.0011565,-0.123028
0.001157,-0.125176
0.0011575,-0.125176
0.001158,-0.127324
0.0011585,-0.12088
0.001159,-0.123028
0.0011595,-0.125176
0.00116,-0.127324
0.0011605,-0.125176
0.001161,-0.125176
0.0011615,-0.125176
0.001162,-0.125176
0.0011625,-0.13162
0.001163,-0.125176
0.0011635,-0.13162
0.001164,-0.125176
0.0011645,-0.127324
0.001165,-0.12088
0.0011655,-0.133768
0.001166,-0.123028
0.0011665,-0.129472
0.001167,-0.123028
0.0011675,-0.129472
0.001168,-0.123028
0.0011685,-0.125176
0.001169,-0.123028
0.0011695,-0.127324
0.00117,-0.129472
0.0011705,-0.123028
0.001171,-0.125176
0.0011715,-0.123028
0.001172,-0.129472
0.0011725,-0.125176
0.001173,-0.13162
0.0011735,-0.125176
0.001174,-0.127324
0.0011745,-0.125176
0.001175,-0.123028
0.0011755,-0.13162
0.001176,-0.125176
0.0011765,-0.127324
0.001177,-0.123028
0.0011775,-0.13162
0.001178,-0.123028
0.0011785,-0.129472
0.001179,-0.123028
0.0011795,-0.133768
0.00118,-0.125176
0.0011805,-0.125176
0.001181,-0.123028
0.0011815,-0.125176
0.001182,-0.127324
0.0011825,-0.125176
0.001183,-0.127324
0.0011835,-0.127324
0.001184,-0.13162
0.0011845,-0.123028
0.001185,-0.127324
0.0011855,-0.129472
0.001186,-0.127324
0.0011865,-0.127324
0.001187,-0.125176
0.0011875,-0.133768
0.001188,-0.125176
0.0011885,-0.133768
0.001189,-0.12088
0.0011895,-0.133768
0.00119,-0.125176
0.0011905,-0.129472
0.001191,-0.118732
0.0011915,-0.129472
0.001192,-0.123028
0.0011925,-0.127324
0.001193,-0.123028
0.0011935,-0.125176
0.001194,-0.129472
0.0011945,-0.12088
0.001195,-0.129472
0.0011955,-0.127324
0.001196,-0.13162
0.0011965,-0.123028
0.001197,-0.129472
0.0011975,-0.129472
0.001198,-0.127324
0.0011985,-0.127324
0.001199,-0.127324
0.0011995,-0.129472
0.0012,-0.125176
0.0012005,-0.129472
0.001201,-0.123028
0.0012015,-0.129472
0.001202,-0.125176
0.0012025,-0.129472
0.001203,-0.12088
0.0012035,-0.13162
0.001204,-0.125176
0.0012045,-0.125176
0.001205,-0.125176
0.0012055,-0.127324
0.001206,-0.133768
0.0012065,-0.12088
0.001207,-0.127324
0.0012075,-0.125176
0.001208,-0.129472
0.0012085,-0.118732
0.001209,-0.129472
0.0012095,-0.125176
0.00121,-0.129472
0.0012105,-0.12088
0.001211,-0.123028
0.0012115,-0.125176
0.001212,-0.123028
0.0012125,-0.129472
0.001213,-0.123028
0.0012135,-0.13162
0.001214,-0.127324
0.0012145,-0.129472
0.001215,-0.123028
0.0012155,-0.13162
0.001216,-0.129472
0.0012165,-0.127324
0.001217,-0.123028
0.0012175,-0.127324
0.001218,-0.13162
0.0012185,-0.123028
0.001219,-0.127324
0.0012195,-0.123028
0.00122,-0.13162
0.0012205,-0.12088
0.001221,-0.129472
0.0012215,-0.123028
0.001222,-0.133768
0.0012225,-0.123028
0.001223,-0.125176
0.0012235,-0.127324
0.001224,-0.13162
0.0012245,-0.129472
0.001225,-0.125176
0.0012255,-0.129472
0.001226,-0.127324
0.0012265,-0.13162
0.001227,-0.125176
0.0012275,-0.13162
0.001228,-0.125176
0.0012285,-0.133768
0.001229,-0.129472
0.0012295,-0.129472
0.00123,-0.129472
0.0012305,-0.129472
0.001231,-0.13162
0.0012315,-0.123028
0.001232,-0.13162
0.0012325,-0.125176
0.001233,-0.129472
0.0012335,-0.12088
0.001234,-0.133768
0.0012345,-0.12088
0.001235,-0.123028
0.0012355,-0.127324
0.001236,-0.127324
0.0012365,-0.127324
0.001237,-0.127324
0.0012375,-0.127324
0.001238,-0.125176
0.0012385,-0.13162
0.001239,-0.127324
0.0012395,-0.129472
0.00124,-0.127324
0.0012405,-0.13162
0.001241,-0.127324
0.0012415,-0.129472
0.001242,-0.127324
0.0012425,-0.129472
0.001243,-0.133768
0.0012435,-0.125176
0.001244,-0.133768
0.0012445,-0.127324
0.001245,-0.133768
0.0012455,-0.125176
0.001246,-0.135916
0.0012465,-0.127324
0.001247,-0.13162
0.0012475,-0.127324
0.001248,-0.133768
0.0012485,-0.127324
0.001249,-0.129472
0.0012495,-0.129472
0.00125,-0.13162
0.0012505,-0.13162
0.001251,-0.129472
0.0012515,-0.129472
0.001252,-0.129472
0.0012525,-0.129472
0.001253,-0.125176
0.0012535,-0.127324
0.001254,-0.127324
0.0012545,-0.129472
0.001255,-0.13162
0.0012555,-0.123028
0.001256,-0.133768
0.0012565,-0.125176
0.001257,-0.127324
0.0012575,-0.125176
0.001258,-0.135916
0.0012585,-0.12088
0.001259,-0.123028
0.0012595,-0.127324
0.00126,-0.129472
0.0012605,-0.125176
0.001261,-0.127324
0.0012615,-0.129472
0.001262,-0.129472
0.0012625,-0.13162
0.001263,-0.129472
0.0012635,-0.13162
0.001264,-0.127324
0.0012645,-0.129472
0.001265,-0.123028
0.0012655,-0.129472
0.001266,-0.129472
0.0012665,-0.127324
0.001267,-0.129472
0.0012675,-0.123028
0.001268,-0.133768
0.0012685,-0.127324
0.001269,-0.13162
0.0012695,-0.123028
0.00127,-0.133768
0.0012705,-0.125176
0.001271,-0.129472
0.0012715,-0.123028
0.001272,-0.133768
0.0012725,-0.127324
0.001273,-0.123028
0.0012735,-0.125176
0.001274,-0.129472
0.0012745,-0.127324
