FIR DIGITAL FILTER/pictures/default_sine_wave.csv

#Digilent WaveForms Oscilloscope Acquisition
#Device Name: EExplorer
#Serial Number: SN:210151450455
#Date Time: 2019-03-07 09:37:34.366
#Sample rate: 400000Hz
#Samples: 8192
#Trigger: Source: Channel 1 Type: Edge Condition: Rising Level: 1.59648 V Hyst.: Auto HoldOff: 0 s
#Channel 1: Range: 2 V/div Offset: 0 V

Time (s),Channel 1 (V)
-0.01024,0.217454
-0.0102375,0.217302
-0.010235,0.215987
-0.0102325,0.213912
-0.01023,0.211484
-0.0102275,0.208954
-0.010225,0.205918
-0.0102225,0.204299
-0.01022,0.202781
-0.0102175,0.20182
-0.010215,0.199999
-0.0102125,0.199391
-0.01021,0.197317
-0.0102075,0.195344
-0.010205,0.196254
-0.0102025,0.194939
-0.0102,0.192662
-0.0101975,0.18907
-0.010195,0.188564
-0.0101925,0.187299
-0.01019,0.18573
-0.0101875,0.184617
-0.010185,0.183909
-0.0101825,0.181379
-0.01018,0.180772
-0.0101775,0.178647
-0.010175,0.176067
-0.0101725,0.175156
-0.01017,0.173638
-0.0101675,0.172727
-0.010165,0.171209
-0.0101625,0.170248
-0.01016,0.168224
-0.0101575,0.166352
-0.010155,0.16529
-0.0101525,0.162456
-0.01015,0.159977
-0.0101475,0.159825
-0.010145,0.158712
-0.0101425,0.158054
-0.01014,0.155474
-0.0101375,0.152388
-0.010135,0.152995
-0.0101325,0.152033
-0.01013,0.150212
-0.0101275,0.149807
-0.010125,0.149048
-0.0101225,0.146012
-0.01012,0.144242
-0.0101175,0.141611
-0.010115,0.140599
-0.0101125,0.140801
-0.01011,0.139637
-0.0101075,0.138676
-0.010105,0.136905
-0.0101025,0.136905
-0.0101,0.136652
-0.0100975,0.134375
-0.010095,0.130783
-0.0100925,0.130479
-0.01009,0.130631
-0.0100875,0.129012
-0.010085,0.127342
-0.0100825,0.125572
-0.01008,0.125572
-0.0100775,0.12542
-0.010075,0.124104
-0.0100725,0.121878
-0.01007,0.118539
-0.0100675,0.117324
-0.010065,0.116009
-0.0100625,0.114137
-0.01006,0.113428
-0.0100575,0.113428
-0.010055,0.113378
-0.0100525,0.112872
-0.01005,0.111405
-0.0100475,0.108571
-0.010045,0.108268
-0.0100425,0.106041
-0.01004,0.105282
-0.0100375,0.104675
-0.010035,0.102955
-0.0100325,0.103056
-0.01003,0.100881
-0.0100275,0.0979461
-0.010025,0.0971871
-0.0100225,0.0966811
-0.01002,0.0954668
-0.0100175,0.0943031
-0.010015,0.0933418
-0.0100125,0.0917227
-0.01001,0.0926335
-0.0100075,0.0915203
-0.010005,0.0909132
-0.0100025,0.0892941
-0.01,0.0902554
-0.0099975,0.0893447
-0.009995,0.0878268
-0.0099925,0.0871185
-0.00999,0.0868655
-0.0099875,0.0847405
-0.009985,0.0821095
-0.0099825,0.0810975
-0.00998,0.0811481
-0.0099775,0.0788207
-0.009975,0.0773534
-0.0099725,0.0770498
-0.00997,0.0772016
-0.0099675,0.0756331
-0.009965,0.0744694
-0.0099625,0.0735587
-0.00996,0.0718384
-0.0099575,0.0693086
-0.009955,0.0665764
-0.0099525,0.0672848
-0.00995,0.0673354
-0.0099475,0.0677907
-0.009945,0.0681449
-0.0099425,0.0656657
-0.00994,0.0655139
-0.0099375,0.0642996
-0.009935,0.0632371
-0.0099325,0.0629335
-0.00993,0.0609097
-0.0099275,0.061365
-0.009925,0.0595942
-0.0099225,0.0594424
-0.00992,0.0585316
-0.0099175,0.0594424
-0.009915,0.0581269
-0.0099125,0.056103
-0.00991,0.0541804
-0.0099075,0.0531178
-0.009905,0.0531178
-0.0099025,0.0530167
-0.0099,0.0521565
-0.0098975,0.0510434
-0.009895,0.050588
-0.0098925,0.0497785
-0.00989,0.0491713
-0.0098875,0.0497279
-0.009885,0.0486654
-0.0098825,0.0483618
-0.00988,0.046085
-0.0098775,0.0448707
-0.009875,0.0437576
-0.0098725,0.0433022
-0.00987,0.0423409
-0.0098675,0.0403676
-0.009865,0.0391027
-0.0098625,0.0400134
-0.00986,0.0389509
-0.0098575,0.0389509
-0.009855,0.0386473
-0.0098525,0.0365729
-0.00985,0.0369271
-0.0098475,0.0368765
-0.009845,0.0364717
-0.0098425,0.0359657
-0.00984,0.0349538
-0.0098375,0.0351056
-0.009835,0.0337395
-0.0098325,0.0339925
-0.00983,0.0333853
-0.0098275,0.0340431
-0.009825,0.0335371
-0.0098225,0.0323228
-0.00982,0.0309567
-0.0098175,0.0286799
-0.009815,0.0275668
-0.0098125,0.0273138
-0.00981,0.0282245
-0.0098075,0.0295906
-0.009805,0.0290847
-0.0098025,0.027921
-0.0098,0.0272126
-0.0097975,0.026909
-0.009795,0.0243792
-0.0097925,0.0213435
-0.00979,0.0203821
-0.0097875,0.0234179
-0.009785,0.0222542
-0.0097825,0.0212929
-0.00978,0.019522
-0.0097775,0.0193196
-0.009775,0.0179029
-0.0097725,0.0180041
-0.00977,0.0189148
-0.0097675,0.0202303
-0.009765,0.0193196
-0.0097625,0.0180547
-0.00976,0.0189148
-0.0097575,0.0173464
-0.009755,0.016385
-0.0097525,0.0169416
-0.00975,0.0157779
-0.0097475,0.0151201
-0.009745,0.0154237
-0.0097425,0.0152213
-0.00974,0.0161826
-0.0097375,0.0155249
-0.009735,0.0157779
-0.0097325,0.0150189
-0.00973,0.0146142
-0.0097275,0.01426
-0.009725,0.0141588
-0.0097225,0.0132481
-0.00972,0.0120338
-0.0097175,0.0136022
-0.009715,0.0143612
-0.0097125,0.012135
-0.00971,0.011629
-0.0097075,0.0128939
-0.009705,0.0117808
-0.0097025,0.0114772
-0.0097,0.0117302
-0.0096975,0.0111736
-0.009695,0.0123373
-0.0096925,0.0128939
-0.00969,0.0116796
-0.0096875,0.0103641
-0.009685,0.00808726
-0.0096825,0.00454553
-0.00968,0.00464672
-0.0096775,0.00560804
-0.009675,0.00722712
-0.0096725,0.0062658
-0.00967,0.00707533
-0.0096675,0.00788487
-0.009665,0.00849203
-0.0096625,0.0074801
-0.00966,0.00540566
-0.0096575,0.00570924
-0.009655,0.00520328
-0.0096525,0.00459612
-0.00965,0.00768249
-0.0096475,0.00692355
-0.009645,0.00641758
-0.0096425,0.00550685
-0.00964,0.00631639
-0.0096375,0.00505149
-0.009635,0.00844143
-0.0096325,0.00727772
-0.00963,0.00641758
-0.0096275,0.00525387
-0.009625,0.00464672
-0.0096225,0.00550685
-0.00962,0.00667056
-0.0096175,0.00742951
-0.009615,0.0074801
-0.0096125,0.00540566
-0.00961,0.00575983
-0.0096075,0.00611401
-0.009605,0.00859322
-0.0096025,0.00828964
-0.0096,0.0061646
-0.0095975,0.0062152
-0.009595,0.00651878
-0.0095925,0.00606341
-0.00959,0.00535506
-0.0095875,0.00530447
-0.009585,0.00495029
-0.0095825,0.00520328
-0.00958,0.00692355
-0.0095775,0.00646818
-0.009575,0.00581043
-0.0095725,0.00601281
-0.00957,0.00515268
-0.0095675,0.00672116
-0.009565,0.00763189
-0.0095625,0.00672116
-0.00956,0.00793547
-0.0095575,0.0088968
-0.009555,0.00813785
-0.0095525,0.00742951
-0.00955,0.00515268
-0.0095475,0.00631639
-0.009545,0.00479851
-0.0095425,0.00667056
-0.00954,0.00722712
-0.0095375,0.00641758
-0.009535,0.00818845
-0.0095325,0.00798606
-0.00953,0.00682235
-0.0095275,0.00864382
-0.009525,0.00909918
-0.0095225,0.00970633
-0.00952,0.00904858
-0.0095175,0.00935216
-0.009515,0.00920037
-0.0095125,0.0107689
-0.00951,0.0118314
-0.0095075,0.0115278
-0.009505,0.00935216
-0.0095025,0.00930157
-0.0095,0.0117302
-0.0094975,0.0134505
-0.009495,0.0107689
-0.0094925,0.0118314
-0.00949,0.0120338
-0.0094875,0.013501
-0.009485,0.014007
-0.0094825,0.0150189
-0.00948,0.0147154
-0.0094775,0.0150189
-0.009475,0.0145636
-0.0094725,0.0138552
-0.00947,0.0138552
-0.0094675,0.0139058
-0.009465,0.0144118
-0.0094625,0.0155755
-0.00946,0.0162332
-0.0094575,0.0156767
-0.009455,0.0144118
-0.0094525,0.0153731
-0.00945,0.0149683
-0.0094475,0.017144
-0.009445,0.0177005
-0.0094425,0.018763
-0.00944,0.0164356
-0.0094375,0.0176499
-0.009435,0.0186619
-0.0094325,0.0184089
-0.00943,0.019269
-0.0094275,0.0202809
-0.009425,0.020028
-0.0094225,0.0209387
-0.00942,0.0225578
-0.0094175,0.0240251
-0.009415,0.024278
-0.0094125,0.0235697
-0.00941,0.0237215
-0.0094075,0.0248852
-0.009405,0.0255429
-0.0094025,0.0253911
-0.0094,0.0270102
-0.0093975,0.0283257
-0.009395,0.0280221
-0.0093925,0.0309061
-0.00939,0.0311591
-0.0093875,0.030552
-0.009385,0.0314121
-0.0093825,0.0326264
-0.00938,0.0335371
-0.0093775,0.0325758
-0.009375,0.0333853
-0.0093725,0.0338407
-0.00937,0.0322722
-0.0093675,0.0338407
-0.009365,0.0349538
-0.0093625,0.0352068
-0.00936,0.0345491
-0.0093575,0.0350044
-0.009355,0.0360669
-0.0093525,0.0386979
-0.00935,0.0397605
-0.0093475,0.0396593
-0.009345,0.0390521
-0.0093425,0.0399628
-0.00934,0.0415313
-0.0093375,0.0425432
-0.009335,0.0421891
-0.0093325,0.0423409
-0.00933,0.0435046
-0.0093275,0.0444153
-0.009325,0.0457814
-0.0093225,0.0453766
-0.00932,0.0452754
-0.0093175,0.0471981
-0.009315,0.0483618
-0.0093125,0.0492219
-0.00931,0.0502339
-0.0093075,0.0500821
-0.009305,0.0517518
-0.0093025,0.0535732
-0.0093,0.0537756
-0.0092975,0.0531178
-0.009295,0.0562548
-0.0092925,0.0584304
-0.00929,0.0588858
-0.0092875,0.059493
-0.009285,0.058734
-0.0092825,0.0582281
-0.00928,0.0574691
-0.0092775,0.0596448
-0.009275,0.0599989
-0.0092725,0.0608085
-0.00927,0.066374
-0.0092675,0.0656657
-0.009265,0.0659187
-0.0092625,0.0677401
-0.00926,0.0683473
-0.0092575,0.0700676
-0.009255,0.0698652
-0.0092525,0.0709783
-0.00925,0.0712313
-0.0092475,0.0706241
-0.009245,0.0716866
-0.0092425,0.0742164
-0.00924,0.0745706
-0.0092375,0.074773
-0.009235,0.0760885
-0.0092325,0.0756331
-0.00923,0.0775558
-0.0092275,0.0787195
-0.009225,0.0794785
-0.0092225,0.079782
-0.00922,0.079782
-0.0092175,0.0824636
-0.009215,0.0839309
-0.0092125,0.0841839
-0.00921,0.0837791
-0.0092075,0.0864101
-0.009205,0.0901542
-0.0092025,0.0915203
-0.0092,0.091318
-0.0091975,0.0924311
-0.009195,0.0928864
-0.0091925,0.0937466
-0.00919,0.0947585
-0.0091875,0.0945055
-0.009185,0.0954668
-0.0091825,0.0972883
-0.00918,0.0977437
-0.0091775,0.0986038
-0.009175,0.0997675
-0.0091725,0.100779
-0.00917,0.103309
-0.0091675,0.106092
-0.009165,0.105637
-0.0091625,0.10508
-0.00916,0.106446
-0.0091575,0.108723
-0.009155,0.110089
-0.0091525,0.112214
-0.00915,0.112214
-0.0091475,0.112366
-0.009145,0.11353
-0.0091425,0.11444
-0.00914,0.115958
-0.0091375,0.116818
-0.009135,0.11783
-0.0091325,0.117527
-0.00913,0.118083
-0.0091275,0.119854
-0.009125,0.122536
-0.0091225,0.123952
-0.00912,0.124205
-0.0091175,0.125976
-0.009115,0.126229
-0.0091125,0.128304
-0.00911,0.130682
-0.0091075,0.132756
-0.009105,0.134982
-0.0091025,0.135893
-0.0091,0.137209
-0.0090975,0.136804
-0.009095,0.13898
-0.0090925,0.139536
-0.00909,0.141155
-0.0090875,0.142724
-0.009085,0.143887
-0.0090825,0.144849
-0.00908,0.146873
-0.0090775,0.148745
-0.009075,0.149655
-0.0090725,0.151325
-0.00907,0.153146
-0.0090675,0.153703
-0.009065,0.155272
-0.0090625,0.156486
-0.00906,0.157599
-0.0090575,0.158105
-0.009055,0.15942
-0.0090525,0.161191
-0.00905,0.161495
-0.0090475,0.163923
-0.009045,0.166504
-0.0090425,0.170096
-0.00904,0.17293
-0.0090375,0.173081
-0.009035,0.174498
-0.0090325,0.176977
-0.00903,0.177078
-0.0090275,0.177837
-0.009025,0.178546
-0.0090225,0.181126
-0.00902,0.181936
-0.0090175,0.182644
-0.009015,0.183049
-0.0090125,0.186085
-0.00901,0.187855
-0.0090075,0.190335
-0.009005,0.190385
-0.0090025,0.191296
-0.009,0.195344
-0.0089975,0.196609
-0.008995,0.198076
-0.0089925,0.198329
-0.00899,0.197873
-0.0089875,0.200049
-0.008985,0.203034
-0.0089825,0.20435
-0.00898,0.206374
-0.0089775,0.208195
-0.008975,0.208802
-0.0089725,0.210725
-0.00897,0.21204
-0.0089675,0.214014
-0.008965,0.215987
-0.0089625,0.219933
-0.00896,0.220439
-0.0089575,0.221755
-0.008955,0.223627
-0.0089525,0.224588
-0.00895,0.226612
-0.0089475,0.228687
-0.008945,0.230761
-0.0089425,0.230559
-0.00894,0.232026
-0.0089375,0.235264
-0.008935,0.238199
-0.0089325,0.238907
-0.00893,0.239261
-0.0089275,0.241842
-0.008925,0.242955
-0.0089225,0.245737
-0.00892,0.245889
-0.0089175,0.249583
-0.008915,0.250746
-0.0089125,0.251708
-0.00891,0.253883
-0.0089075,0.257122
-0.008905,0.259854
-0.0089025,0.259398
-0.0089,0.26127
-0.0088975,0.262232
-0.008895,0.264256
-0.0088925,0.266381
-0.00889,0.269163
-0.0088875,0.271643
-0.008885,0.274223
-0.0088825,0.275336
-0.00888,0.27822
-0.0088775,0.278827
-0.008875,0.280548
-0.0088725,0.280345
-0.00887,0.281458
-0.0088675,0.282268
-0.008865,0.285658
-0.0088625,0.287277
-0.00886,0.288896
-0.0088575,0.290414
-0.008855,0.291325
-0.0088525,0.293146
-0.00885,0.296232
-0.0088475,0.298509
-0.008845,0.302304
-0.0088425,0.304075
-0.00884,0.304176
-0.0088375,0.305593
-0.008835,0.310602
-0.0088325,0.31126
-0.00883,0.313789
-0.0088275,0.316572
-0.008825,0.316471
-0.0088225,0.318495
-0.00882,0.320417
-0.0088175,0.321581
-0.008815,0.322492
-0.0088125,0.324566
-0.00881,0.329221
-0.0088075,0.330031
-0.008805,0.333522
-0.0088025,0.335647
-0.0088,0.335748
-0.0087975,0.336659
-0.008795,0.338328
-0.0087925,0.340453
-0.00879,0.343186
-0.0087875,0.345108
-0.008785,0.346626
-0.0087825,0.350168
-0.00878,0.352951
-0.0087775,0.35543
-0.008775,0.358213
-0.0087725,0.360287
-0.00877,0.360186
-0.0087675,0.361856
-0.008765,0.361552
-0.0087625,0.364487
-0.00876,0.3656
-0.0087575,0.368838
-0.008755,0.372025
-0.0087525,0.374707
-0.00875,0.376579
-0.0087475,0.38007
-0.008745,0.382246
-0.0087425,0.382954
-0.00874,0.385737
-0.0087375,0.388166
-0.008735,0.390443
-0.0087325,0.391758
-0.00873,0.393782
-0.0087275,0.395806
-0.008725,0.397728
-0.0087225,0.398993
-0.00872,0.400714
-0.0087175,0.403294
-0.008715,0.406734
-0.0087125,0.408708
-0.00871,0.410479
-0.0087075,0.413261
-0.008705,0.415639
-0.0087025,0.417663
-0.0087,0.419889
-0.0086975,0.423077
-0.008695,0.423229
-0.0086925,0.424544
-0.00869,0.426669
-0.0086875,0.429503
-0.008685,0.432235
-0.0086825,0.43436
-0.00868,0.437244
-0.0086775,0.440077
-0.008675,0.440432
-0.0086725,0.443214
-0.00867,0.445491
-0.0086675,0.446908
-0.008665,0.449893
-0.0086625,0.45389
-0.00866,0.457229
-0.0086575,0.458292
-0.008655,0.458646
-0.0086525,0.461227
-0.00865,0.46239
-0.0086475,0.466084
-0.008645,0.46998
-0.0086425,0.472762
-0.00864,0.47509
-0.0086375,0.47681
-0.008635,0.47934
-0.0086325,0.482325
-0.00863,0.483641
-0.0086275,0.485563
-0.008625,0.486727
-0.0086225,0.487992
-0.00862,0.49209
-0.0086175,0.49376
-0.008615,0.495936
-0.0086125,0.499072
-0.00861,0.501248
-0.0086075,0.501956
-0.008605,0.505093
-0.0086025,0.510001
-0.0086,0.51248
-0.0085975,0.515061
-0.008595,0.516275
-0.0085925,0.520323
-0.00859,0.523915
-0.0085875,0.524421
-0.008585,0.526091
-0.0085825,0.530644
-0.00858,0.533225
-0.0085775,0.536665
-0.008575,0.538588
-0.0085725,0.539853
-0.00857,0.541472
-0.0085675,0.543243
-0.008565,0.545823
-0.0085625,0.546987
-0.00856,0.55063
-0.0085575,0.554273
-0.008555,0.557663
-0.0085525,0.559434
-0.00855,0.562065
-0.0085475,0.563431
-0.008545,0.565961
-0.0085425,0.569199
-0.00854,0.572538
-0.0085375,0.57608
-0.008535,0.576333
-0.0085325,0.578255
-0.00853,0.579419
-0.0085275,0.580532
-0.008525,0.583669
-0.0085225,0.586503
-0.00852,0.59141
-0.0085175,0.59136
-0.008515,0.593789
-0.0085125,0.596521
-0.00851,0.601074
-0.0085075,0.603554
-0.008505,0.606438
-0.0085025,0.609271
-0.0085,0.609726
-0.0084975,0.613369
-0.008495,0.616759
-0.0084925,0.61853
-0.00849,0.621363
-0.0084875,0.623893
-0.008485,0.624602
-0.0084825,0.627384
-0.00848,0.629661
-0.0084775,0.631128
-0.008475,0.634367
-0.0084725,0.637757
-0.00847,0.641754
-0.0084675,0.642867
-0.008465,0.646054
-0.0084625,0.649242
-0.00846,0.654352
-0.0084575,0.655465
-0.008455,0.656123
-0.0084525,0.658703
-0.00845,0.662498
-0.0084475,0.667001
-0.008445,0.669278
-0.0084425,0.673275
-0.00844,0.676716
-0.0084375,0.678841
-0.008435,0.681421
-0.0084325,0.682484
-0.00843,0.685418
-0.0084275,0.688707
-0.008425,0.689567
-0.0084225,0.690781
-0.00842,0.692249
-0.0084175,0.695588
-0.008415,0.699433
-0.0084125,0.702216
-0.00841,0.707124
-0.0084075,0.709654
-0.008405,0.712791
-0.0084025,0.715068
-0.0084,0.716282
-0.0083975,0.717597
-0.008395,0.719925
-0.0083925,0.724074
-0.00839,0.7263
-0.0083875,0.729791
-0.008385,0.73222
-0.0083825,0.734749
-0.00838,0.73819
-0.0083775,0.742592
-0.008375,0.743806
-0.0083725,0.745172
-0.00837,0.747601
-0.0083675,0.750232
-0.008365,0.754128
-0.0083625,0.757164
-0.00836,0.761464
-0.0083575,0.764702
-0.008355,0.767738
-0.0083525,0.769509
-0.00835,0.77214
-0.0083475,0.773658
-0.008345,0.776947
-0.0083425,0.778262
-0.00834,0.782816
-0.0083375,0.785194
-0.008335,0.787471
-0.0083325,0.791367
-0.00833,0.7942
-0.0083275,0.796831
-0.008325,0.798248
-0.0083225,0.801182
-0.00832,0.804623
-0.0083175,0.806748
-0.008315,0.809733
-0.0083125,0.813629
-0.00831,0.816209
-0.0083075,0.817626
-0.008305,0.823293
-0.0083025,0.828403
-0.0083,0.829769
-0.0082975,0.832501
-0.008295,0.836954
-0.0082925,0.838573
-0.00829,0.840242
-0.0082875,0.842266
-0.008285,0.844594
-0.0082825,0.848793
-0.00828,0.851171
-0.0082775,0.853549
-0.008275,0.858204
-0.0082725,0.861392
-0.00827,0.864326
-0.0082675,0.867615
-0.008265,0.868779
-0.0082625,0.872371
-0.00826,0.875559
-0.0082575,0.878443
-0.008255,0.881731
-0.0082525,0.885071
-0.00825,0.886437
-0.0082475,0.889068
-0.008245,0.893014
-0.0082425,0.896202
-0.00824,0.899035
-0.0082375,0.901565
-0.008235,0.902324
-0.0082325,0.905613
-0.00823,0.909003
-0.0082275,0.910875
-0.008225,0.914821
-0.0082225,0.920387
-0.00822,0.922461
-0.0082175,0.925042
-0.008215,0.928482
-0.0082125,0.930607
-0.00821,0.933643
-0.0082075,0.937944
-0.008205,0.941283
-0.0082025,0.945179
-0.0082,0.947709
-0.0081975,0.948417
-0.008195,0.95125
-0.0081925,0.953932
-0.00819,0.956006
-0.0081875,0.960763
-0.008185,0.962078
-0.0081825,0.964405
-0.00818,0.968959
-0.0081775,0.973715
-0.008175,0.974929
-0.0081725,0.976397
-0.00817,0.979736
-0.0081675,0.983531
-0.008165,0.985858
-0.0081625,0.990311
-0.00816,0.99446
-0.0081575,0.996585
-0.008155,0.999266
-0.0081525,1.00104
-0.00815,1.00387
-0.0081475,1.00686
-0.008145,1.01106
-0.0081425,1.01611
-0.00814,1.01956
-0.0081375,1.02148
-0.008135,1.02284
-0.0081325,1.02558
-0.00813,1.03008
-0.0081275,1.0321
-0.008125,1.03448
-0.0081225,1.03898
-0.00812,1.04136
-0.0081175,1.04587
-0.008115,1.04799
-0.0081125,1.05072
-0.00811,1.05265
-0.0081075,1.05447
-0.008105,1.05988
-0.0081025,1.06115
-0.0081,1.06555
-0.0080975,1.06965
-0.008095,1.07395
-0.0080925,1.07718
-0.00809,1.08047
-0.0080875,1.08386
-0.008085,1.08563
-0.0080825,1.08847
-0.00808,1.0912
-0.0080775,1.09353
-0.008075,1.09752
-0.0080725,1.09899
-0.00807,1.10435
-0.0080675,1.10486
-0.008065,1.10658
-0.0080625,1.11159
-0.00806,1.11488
-0.0080575,1.11842
-0.008055,1.1213
-0.0080525,1.12464
-0.00805,1.12854
-0.0080475,1.13168
-0.008045,1.13648
-0.0080425,1.1381
-0.00804,1.14013
-0.0080375,1.14448
-0.008035,1.14569
-0.0080325,1.14974
-0.00803,1.15369
-0.0080275,1.15697
-0.008025,1.16072
-0.0080225,1.16492
-0.00802,1.16719
-0.0080175,1.16851
-0.008015,1.17099
-0.0080125,1.1764
-0.00801,1.18015
-0.0080075,1.1843
-0.008005,1.18673
-0.0080025,1.19163
-0.008,1.19416
-0.0079975,1.19725
-0.007995,1.19948
-0.0079925,1.20292
-0.00799,1.20504
-0.0079875,1.20787
-0.007985,1.21071
-0.0079825,1.21359
-0.00798,1.21688
-0.0079775,1.22052
-0.007975,1.22432
-0.0079725,1.22897
-0.00797,1.23211
-0.0079675,1.23449
-0.007965,1.23661
-0.0079625,1.23935
-0.00796,1.24167
-0.0079575,1.24577
-0.007955,1.24774
-0.0079525,1.25199
-0.00795,1.25483
-0.0079475,1.25746
-0.007945,1.25872
-0.0079425,1.2606
-0.00794,1.26434
-0.0079375,1.26869
-0.007935,1.27238
-0.0079325,1.27643
-0.00793,1.28043
-0.0079275,1.28417
-0.007925,1.28832
-0.0079225,1.2904
-0.00792,1.29288
-0.0079175,1.29586
-0.007915,1.29981
-0.0079125,1.30305
-0.00791,1.30644
-0.0079075,1.31053
-0.007905,1.31236
-0.0079025,1.31554
-0.0079,1.31838
-0.0078975,1.32131
-0.007895,1.3248
-0.0078925,1.32743
-0.00789,1.33138
-0.0078875,1.33462
-0.007885,1.33801
-0.0078825,1.34246
-0.00788,1.34656
-0.0078775,1.34828
-0.007875,1.35071
-0.0078725,1.35364
-0.00787,1.35961
-0.0078675,1.36199
-0.007865,1.36447
-0.0078625,1.36973
-0.00786,1.37216
-0.0078575,1.37464
-0.007855,1.37752
-0.0078525,1.38071
-0.00785,1.38359
-0.0078475,1.38683
-0.007845,1.38992
-0.0078425,1.39235
-0.00784,1.39721
-0.0078375,1.39918
-0.007835,1.4013
-0.0078325,1.40667
-0.00783,1.41001
-0.0078275,1.41385
-0.007825,1.41623
-0.0078225,1.41815
-0.00782,1.41972
-0.0078175,1.42392
-0.007815,1.42883
-0.0078125,1.43131
-0.00781,1.43414
-0.0078075,1.43723
-0.007805,1.44188
-0.0078025,1.44522
-0.0078,1.44896
-0.0077975,1.45069
-0.007795,1.45352
-0.0077925,1.45888
-0.00779,1.46202
-0.0077875,1.4645
-0.007785,1.46733
-0.0077825,1.47037
-0.00778,1.47497
-0.0077775,1.48044
-0.007775,1.48413
-0.0077725,1.48575
-0.00777,1.4899
-0.0077675,1.49217
-0.007765,1.49587
-0.0077625,1.49749
-0.00776,1.50179
-0.0077575,1.50482
-0.007755,1.5067
-0.0077525,1.51039
-0.00775,1.51398
-0.0077475,1.51514
-0.007745,1.52132
-0.0077425,1.52506
-0.00774,1.52683
-0.0077375,1.52951
-0.007735,1.53139
-0.0077325,1.53503
-0.00773,1.53877
-0.0077275,1.54297
-0.007725,1.5456
-0.0077225,1.5495
-0.00772,1.55238
-0.0077175,1.55542
-0.007715,1.55739
-0.0077125,1.56149
-0.00771,1.56341
-0.0077075,1.56756
-0.007705,1.57222
